…
3 casual        electric_bike  570191
4 member        classic_bike  1866532
5 member        electric_bike  954054
> #total rides
> Cyclistic_Date %>% group_by(rideable_type) %>% count(rideable_type)
# A tibble: 3 × 2
# Groups:   rideable_type [3]
  rideable_type       n
  <chr>           <int>
1 classic_bike  2768027
2 docked_bike     69347
3 electric_bike 1524245
> #rides by member type
> Cyclistic_Date %>% group_by(member_casual) %>% print(n=48)
# A tibble: 4,361,619 × 16
# Groups:   member_casual [2]
   rideable_type started_at         
   <chr>         <dttm>             
 1 classic_bike  2023-04-10 17:34:35
 2 classic_bike  2023-04-12 12:29:46
 3 electric_bike 2023-04-13 17:39:23
 4 classic_bike  2023-04-29 20:57:10
 5 classic_bike  2023-04-20 17:03:11
 6 electric_bike 2023-04-14 22:29:12
 7 classic_bike  2023-04-07 21:14:14
 8 classic_bike  2023-04-05 11:04:02
 9 classic_bike  2023-04-05 11:44:33
10 electric_bike 2023-04-24 12:44:02
11 classic_bike  2023-04-22 12:16:56
12 electric_bike 2023-04-11 15:16:42
13 electric_bike 2023-04-02 11:02:32
14 classic_bike  2023-04-05 16:33:46
15 classic_bike  2023-04-25 16:16:33
16 electric_bike 2023-04-09 18:39:12
17 classic_bike  2023-04-10 14:37:54
18 classic_bike  2023-04-09 15:06:35
19 classic_bike  2023-04-07 19:15:37
20 classic_bike  2023-04-07 19:14:51
21 classic_bike  2023-04-10 19:45:25
22 classic_bike  2023-04-29 16:56:27
23 electric_bike 2023-04-11 13:49:18
24 electric_bike 2023-04-11 08:55:56
25 electric_bike 2023-04-12 19:53:23
26 classic_bike  2023-04-13 10:42:23
27 classic_bike  2023-04-15 20:54:22
28 classic_bike  2023-04-15 13:29:02
29 classic_bike  2023-04-14 20:06:59
30 electric_bike 2023-04-15 10:27:45
31 electric_bike 2023-04-11 19:49:27
32 electric_bike 2023-04-12 13:12:50
33 electric_bike 2023-04-11 16:42:33
34 classic_bike  2023-04-27 15:50:25
35 classic_bike  2023-04-02 15:37:03
36 electric_bike 2023-04-08 04:08:44
37 classic_bike  2023-04-11 12:52:28
38 electric_bike 2023-04-27 10:22:30
39 classic_bike  2023-04-13 13:04:10
40 electric_bike 2023-04-17 17:08:25
41 electric_bike 2023-04-17 17:07:14
42 classic_bike  2023-04-02 11:42:55
43 electric_bike 2023-04-20 18:30:40
44 electric_bike 2023-04-29 10:53:54
45 electric_bike 2023-04-16 09:02:16
46 classic_bike  2023-04-28 17:02:06
47 classic_bike  2023-04-25 19:14:51
48 classic_bike  2023-04-14 15:29:20
# ℹ 4,361,571 more rows
# ℹ 14 more variables: ended_at <dttm>,
#   start_station_name <chr>,
#   end_station_name <chr>, member_casual <chr>,
#   ride_length <drtn>, date <date>,
#   day_of_week <chr>, month <chr>, day <chr>,
#   year <chr>, time <time>, hour <int>, …
# ℹ Use `print(n = ...)` to see more rows
…
